country_size,win,per,forc,nrows,ncols,metric,metric_name,title_name,start_mo,slide_order,ppt_layout,panel_desc,shiny_label
tall,12,12,0,4,10,composite_adjusted,Composite Surplus and Deficit,Composite,1,1,historic-panel-large-comp,long_term,composite_historic
tall,1,1,9,3,9,composite_adjusted,Composite Surplus and Deficit,Composite,,2,routine-panel-large-comp,one_mo,composite_1
tall,3,1,9,3,9,composite_adjusted,Composite Surplus and Deficit,Composite,,3,routine-panel-large-comp,three_mo,composite_3
tall,12,1,9,3,9,composite_adjusted,Composite Surplus and Deficit,Composite,,4,routine-panel-large-comp,twelve_mo,composite_12
tall,12,12,0,4,10,T_ave_rp,Temperature,Temperature,1,5,historic-panel-large,long_term,t_historic
tall,1,1,9,3,9,T_rp,Temperature,Temperature,,6,routine-panel-large,one_mo,t_1
tall,3,1,9,3,9,T_ave_rp,Temperature,Temperature,,7,routine-panel-large,three_mo,t_3
tall,12,1,9,3,9,T_ave_rp,Temperature,Temperature,,8,routine-panel-large,twelve_mo,t_12
tall,1,1,9,3,9,Pr_rp,Precipitation,Precipitation,,9,routine-panel-large,one_mo,pr_1
tall,3,1,9,3,9,Pr_sum_rp,Precipitation,Precipitation,,10,routine-panel-large,three_mo,pr_3
tall,12,1,9,3,9,Pr_sum_rp,Precipitation,Precipitation,,11,routine-panel-large,twelve_mo,pr_12
tall,1,1,9,3,9,RO_mm_rp,Runoff,Runoff,,12,routine-panel-large,one_mo,ro_1
tall,3,1,9,3,9,RO_mm_sum_rp,Runoff,Runoff,,13,routine-panel-large,three_mo,ro_3
tall,12,1,9,3,9,RO_mm_sum_rp,Runoff,Runoff,,14,routine-panel-large,twelve_mo,ro_12
tall,1,1,9,3,9,Bt_RO_rp,Total Blue Water,Blue Water,,15,routine-panel-large,one_mo,bt_ro_1
tall,3,1,9,3,9,Bt_RO_sum_rp,Total Blue Water,Blue Water,,16,routine-panel-large,three_mo,bt_ro_3
tall,12,1,9,3,9,Bt_RO_sum_rp,Total Blue Water,Blue Water,,17,routine-panel-large,twelve_mo,bt_ro_12
tall,1,1,9,3,9,PETmE_rp,Potential Minus Actual Evapotranspiration (PETmE),PETmE,,18,routine-panel-large,one_mo,petme_1
tall,3,1,9,3,9,PETmE_sum_rp,Potential Minus Actual Evapotranspiration (PETmE),PETmE,,19,routine-panel-large,three_mo,petme_3
tall,12,1,9,3,9,PETmE_sum_rp,Potential Minus Actual Evapotranspiration (PETmE),PETmE,,20,routine-panel-large,twelve_mo,petme_12
tall,1,1,9,3,9,Ws_rp,Soil Moisture,Soil Moisture,,21,routine-panel-large,one_mo,ws_1
tall,3,1,9,3,9,Ws_ave_rp,Soil Moisture,Soil Moisture,,22,routine-panel-large,three_mo,ws_3
tall,12,1,9,3,9,Ws_ave_rp,Soil Moisture,Soil Moisture,,23,routine-panel-large,twelve_mo,ws_12
tall,1,1,9,3,9,Snowpack_rp,Snowpack,Snowpack,,24,routine-panel-large,one_mo,snowpack_1
large,12,12,1,5,7,composite_adjusted,Composite Surplus and Deficit,Composite,1,1,historic-panel-large-comp,long_term,composite_historic
large,1,1,9,4,5,composite_adjusted,Composite Surplus and Deficit,Composite,,2,routine-panel-large-comp,one_mo,composite_1
large,3,1,9,4,5,composite_adjusted,Composite Surplus and Deficit,Composite,,3,routine-panel-large-comp,three_mo,composite_3
large,12,1,9,4,5,composite_adjusted,Composite Surplus and Deficit,Composite,,4,routine-panel-large-comp,twelve_mo,composite_12
large,12,12,1,5,7,T_ave_rp,Temperature,Temperature,1,5,historic-panel-large,long_term,t_historic
large,1,1,9,4,5,T_rp,Temperature,Temperature,,6,routine-panel-large,one_mo,t_1
large,3,1,9,4,5,T_ave_rp,Temperature,Temperature,,7,routine-panel-large,three_mo,t_3
large,12,1,9,4,5,T_ave_rp,Temperature,Temperature,,8,routine-panel-large,twelve_mo,t_12
large,1,1,9,4,5,Pr_rp,Precipitation,Precipitation,,9,routine-panel-large,one_mo,pr_1
large,3,1,9,4,5,Pr_sum_rp,Precipitation,Precipitation,,10,routine-panel-large,three_mo,pr_3
large,12,1,9,4,5,Pr_sum_rp,Precipitation,Precipitation,,11,routine-panel-large,twelve_mo,pr_12
large,1,1,9,4,5,RO_mm_rp,Runoff,Runoff,,12,routine-panel-large,one_mo,ro_1
large,3,1,9,4,5,RO_mm_sum_rp,Runoff,Runoff,,13,routine-panel-large,three_mo,ro_3
large,12,1,9,4,5,RO_mm_sum_rp,Runoff,Runoff,,14,routine-panel-large,twelve_mo,ro_12
large,1,1,9,4,5,Bt_RO_rp,Total Blue Water,Blue Water,,15,routine-panel-large,one_mo,bt_ro_1
large,3,1,9,4,5,Bt_RO_sum_rp,Total Blue Water,Blue Water,,16,routine-panel-large,three_mo,bt_ro_3
large,12,1,9,4,5,Bt_RO_sum_rp,Total Blue Water,Blue Water,,17,routine-panel-large,twelve_mo,bt_ro_12
large,1,1,9,4,5,PETmE_rp,Potential Minus Actual Evapotranspiration (PETmE),PETmE,,18,routine-panel-large,one_mo,petme_1
large,3,1,9,4,5,PETmE_sum_rp,Potential Minus Actual Evapotranspiration (PETmE),PETmE,,19,routine-panel-large,three_mo,petme_3
large,12,1,9,4,5,PETmE_sum_rp,Potential Minus Actual Evapotranspiration (PETmE),PETmE,,20,routine-panel-large,twelve_mo,petme_12
large,1,1,9,4,5,Ws_rp,Soil Moisture,Soil Moisture,,21,routine-panel-large,one_mo,ws_1
large,3,1,9,4,5,Ws_ave_rp,Soil Moisture,Soil Moisture,,22,routine-panel-large,three_mo,ws_3
large,12,1,9,4,5,Ws_ave_rp,Soil Moisture,Soil Moisture,,23,routine-panel-large,twelve_mo,ws_12
large,1,1,9,4,5,Snowpack_rp,Snowpack,Snowpack,,24,routine-panel-large,one_mo,snowpack_1
